[gd_scene load_steps=5 format=3 uid="uid://bs60pvev4bc2q"]

[ext_resource type="Script" path="res://gun.gd" id="1_31l3f"]
[ext_resource type="Texture2D" uid="uid://cswb5do8rrj7q" path="res://pistol/pistol.png" id="1_vcsco"]
[ext_resource type="PackedScene" uid="uid://8m5mn5kluj6m" path="res://bullet.tscn" id="3_l28d5"]

[sub_resource type="CircleShape2D" id="CircleShape2D_laum5"]
radius = 431.01

[node name="Gun" type="Area2D"]
collision_layer = 0
collision_mask = 2
script = ExtResource("1_31l3f")

[node name="CollisionShape2D" type="CollisionShape2D" parent="."]
position = Vector2(-4, 6)
shape = SubResource("CircleShape2D_laum5")

[node name="WeaponPivot" type="Marker2D" parent="."]

[node name="Pistol" type="Sprite2D" parent="WeaponPivot"]
position = Vector2(51, -27)
rotation = -0.0335759
texture = ExtResource("1_vcsco")

[node name="ShootingPoint" type="Marker2D" parent="WeaponPivot/Pistol"]
unique_name_in_owner = true
position = Vector2(23.3563, -10.2217)

[node name="Bullet" parent="WeaponPivot/Pistol/ShootingPoint" instance=ExtResource("3_l28d5")]

[node name="Timer" type="Timer" parent="."]
wait_time = 0.3
autostart = true

[connection signal="timeout" from="Timer" to="." method="_on_timer_timeout"]
