[gd_scene load_steps=4 format=3 uid="uid://cd2ieamrna34j"]

[ext_resource type="Script" path="res://mob.gd" id="1_jy3v2"]
[ext_resource type="PackedScene" uid="uid://ogik4s70pgwl" path="res://characters/slime/slime.tscn" id="1_sfsgp"]

[sub_resource type="CircleShape2D" id="CircleShape2D_bjeic"]
radius = 49.163

[node name="Mob" type="CharacterBody2D"]
collision_layer = 2
collision_mask = 3
script = ExtResource("1_jy3v2")

[node name="Slime" parent="." instance=ExtResource("1_sfsgp")]
unique_name_in_owner = true

[node name="CollisionShape2D" type="CollisionShape2D" parent="."]
position = Vector2(0, -26)
shape = SubResource("CircleShape2D_bjeic")
